<svg width="155" height="31" viewBox="0 0 155 31" fill="none" xmlns="http://www.w3.org/2000/svg">
<rect y="0.102783" width="155" height="29.9055" rx="5" fill="#20B2AA"/>
<path d="M57.7423 12.74V20.94C56.929 21.3933 56.0557 21.74 55.1223 21.98C54.2023 22.22 53.3357 22.34 52.5223 22.34C50.8557 22.34 49.4423 22.0133 48.2823 21.36C47.1357 20.6933 46.269 19.7667 45.6823 18.58C45.109 17.3933 44.8223 16.0133 44.8223 14.44C44.8223 12.9467 45.0957 11.6067 45.6423 10.42C46.2023 9.23333 47.0557 8.29333 48.2023 7.6C49.3623 6.90667 50.8023 6.56 52.5223 6.56C53.4023 6.56 54.1423 6.64667 54.7423 6.82C55.3557 6.98 56.0423 7.22667 56.8023 7.56V10.08C56.1223 9.70667 55.449 9.42667 54.7823 9.24C54.129 9.04 53.3757 8.94 52.5223 8.94C51.509 8.94 50.629 9.17333 49.8823 9.64C49.149 10.1067 48.589 10.7533 48.2023 11.58C47.8157 12.3933 47.6223 13.3267 47.6223 14.38C47.6223 16.0733 48.049 17.4267 48.9023 18.44C49.769 19.4533 50.9757 19.96 52.5223 19.96C53.349 19.96 54.1823 19.7933 55.0223 19.46V15.16H50.3023V12.74H57.7423ZM62.8763 17.02C63.0896 19.0467 64.2096 20.06 66.2363 20.06C66.7563 20.06 67.2629 19.9933 67.7563 19.86C68.2496 19.7267 68.8029 19.5133 69.4163 19.22L70.1363 21.34C69.4963 21.7 68.8429 21.9533 68.1763 22.1C67.5096 22.26 66.7563 22.34 65.9163 22.34C64.6763 22.34 63.6163 22.0933 62.7363 21.6C61.8563 21.0933 61.1896 20.3933 60.7363 19.5C60.2963 18.6067 60.0763 17.5667 60.0763 16.38C60.0763 15.14 60.3096 14.08 60.7763 13.2C61.2429 12.3067 61.8763 11.6333 62.6763 11.18C63.4763 10.7267 64.3696 10.5 65.3563 10.5C66.9163 10.5 68.1363 10.9667 69.0163 11.9C69.9096 12.82 70.3629 14.1733 70.3763 15.96V17.02H62.8763ZM65.3563 12.78C64.0496 12.78 63.2563 13.5 62.9763 14.94H67.5563C67.4896 14.1933 67.2763 13.6467 66.9163 13.3C66.5563 12.9533 66.0363 12.78 65.3563 12.78ZM75.9298 13.5V18.56C75.9298 19.04 76.0098 19.3733 76.1698 19.56C76.3298 19.7467 76.6232 19.84 77.0498 19.84C77.4765 19.84 77.8832 19.7867 78.2698 19.68V22.02C77.5098 22.18 76.8832 22.26 76.3898 22.26C75.2832 22.26 74.4832 22.0267 73.9898 21.56C73.4965 21.0933 73.2498 20.3733 73.2498 19.4V13.5H71.7698V11.08H73.2498V7.28H75.9298V11.08H78.4898V13.5H75.9298ZM85.4694 6.84H88.2494V22H85.4694V6.84ZM97.6533 10.58C99.0933 10.58 100.16 10.9467 100.853 11.68C101.56 12.4133 101.913 13.6067 101.913 15.26V22H99.2333V15.26C99.2333 14.4733 99.0733 13.9 98.7533 13.54C98.4466 13.1667 97.9066 12.98 97.1333 12.98C96.2266 12.98 95.3133 13.3733 94.3933 14.16V22H91.7133V10.82H94.3933V11.86C95.4066 11.0067 96.4933 10.58 97.6533 10.58ZM104.734 6.84H107.774L107.394 17.4H105.114L104.734 6.84ZM104.814 18.72H107.694V22H104.814V18.72Z" fill="white"/>
</svg>
